{"spider":"./spider.jar;md5;1ee361a1e82bb47bb7a9582055634ca3",
"wallpaper":"https://api.likepoems.com/img/bing",
"sites":
	[{"key":"豆瓣","name":"  ☀光之影院","type":3,"api":"csp_Douban","searchable":0},
	{"key": "潮剧","name": " 🧓光之潮剧","type": 3,"api": "csp_Bili","searchable": 0,"quickSearch": 0,"filterable": 1,"ext": "./xiqu/chaoju.json"},	
	{"key":"云盘登录","name":"云盘登录","type":3,"api":"csp_AliYunPan","searchable":0,"quickSearch":0,"filterable":0,"changeable":0,"ext":"http://127.0.0.1:9978/file/TVBox/token.txt"},
	{"key":"南瓜","name":"南瓜","type":3,"api":"csp_AppYSDQ","searchable":1,"quickSearch":1,"filterable":0},
	{"key":"天天","name":"天天","type":3,"api":"csp_TTian","ext":"http://op.ysdqjs.cn"},
	{"key":"热播","name":"热播","type":3,"api":"csp_TTian","ext":"http://v.rbotv.cn"},
	{"key":"追剧","name":"追剧","type":3,"api":"csp_TTian","ext":"http://app.kzjtv.com"},
	{"key":"厂长","name":"厂长","type":3,"api":"csp_Czsapp","searchable":1,"quickSearch":1,"filterable":1,"ext":"https://www.czys01.com/"},
	{"key":"哔嘀","name":"哔嘀","type":3,"api":"csp_Bdys","searchable":1,"quickSearch":1,"filterable":1},
	{"key":"低端","name":"低端","type":3,"api":"csp_Ddys","searchable":1,"quickSearch":1,"filterable":1},
	{"key":"快看","name":"快看","type":3,"api":"csp_Kuaikan","searchable":1,"quickSearch":1,"filterable":1},
	{"key":"酷看","name":"酷看","type":3,"api":"csp_Wexkukantv","searchable":1,"changeable":1},
	{"key":"明日","name":"明日","type":3,"api":"csp_WexMingriys","searchable":1,"changeable":1},
	{"key":"腐剧","name":"腐剧","type":3,"api":"csp_WexFujutv","searchable":1,"changeable":1},
	{"key":"文才","name":"文才","type":3,"api":"csp_Wexwencai","searchable":1,"changeable":1},
	{"key":"短剧一","name":"短剧一","type":3,"api":"csp_Wexduanjuvop","searchable":1,"changeable":1},
	{"key":"短剧二","name":"短剧二","type":3,"api":"csp_Wexduanjuvmp","searchable":1,"changeable":1},
	{"key":"素白白","name":"素白白","type":3,"api":"csp_Subaibai","searchable":1,"changeable":1},
	{"key":"新视觉","name":"新视觉","type":3,"api":"csp_Web608","searchable":1,"quickSearch":0,"filterable":0,"ext":"https://www.6080yy4.com"},
	{"key":"机器人","name":"机器人","type":3,"api":"csp_Ikanbot","searchable":1,"quickSearch":1,"changeable":1,"ext":"https://v.ikanbot.com"},
	{"key":"短剧网","name":"短剧网","type":3,"api":"csp_Duanjuw","searchable":1,"quickSearch":1,"changeable":1},
	{"key":"酷影视","name":"酷影视","type":3,"api":"csp_AppYsV2","searchable":1,"quickSearch":1,"filterable":1,"ext":"https://www.tvkuys.xyz/api.php/app/"},
	{"key":"三四八","name":"三四八","type":3,"api":"csp_XBPQ","searchable":1,"quickSearch":1,"filterable":1,"ext":"./XBPQ/三四八.json"},
	{"key":"电影牛","name":"电影牛","type":3,"api":"csp_XYQHiker","searchable":1,"quickSearch":1,"filterable":1,"ext":"./XYQHiker/电影牛.json"},
	{"key":"爱奇艺","name":" 🥝爱奇艺","type":3,"api":"./JS/drpy.min.js","ext":"./JS/爱奇艺.js"},
	{"key":"腾讯视频","name":" 🐧腾讯视频","type":3,"api":"./JS/drpy.min.js","ext":"./JS/腾讯视频.js"},
	{"key":"优酷视频","name":" 🌈优酷视频","type":3,"api":"./JS/drpy.min.js","ext":"./JS/优酷视频.js"},
	{"key":"芒果视频","name":" 🥭芒果视频","type":3,"api":"./JS/drpy.min.js","ext":"./JS/芒果视频.js"},
	{"key":"追剧迷","name":"追剧迷","type":3,"api":"./JS/drpy.min.js","ext":"./JS/追剧迷.js"},
	{"key":"看了么","name":"看了么","type":3,"api":"./JS/drpy.min.js","ext":"./JS/看了么.js"},
	{"key":"五五五","name":"五五五","type":3,"api":"./JS/drpy.min.js","ext":"./JS/五五五.js"},
	{"key":"达达龟","name":"达达龟","type":3,"api":"./JS/drpy.min.js","ext":"./JS/达达龟.js"},
	{"key":"茶杯狐","name":"茶杯狐","type":3,"api":"./JS/drpy.min.js","ext":"./JS/茶杯狐.js"},
	{"key":"网飞影视","name":"网飞影视","type":3,"api":"./JS/drpy.min.js","ext":"./JS/网飞TV.js"},
	{"key":"魔力高清","name":"魔力高清","type":3,"api":"./JS/drpy.min.js","ext":"./JS/HDmoli.js"},
	{"key":"乐鱼影视","name":"乐鱼影视","type":3,"api":"./JS/drpy.min.js","ext":"./JS/乐鱼影视.js"},
	{"key":"碟调影视","name":"碟调影视","type":3,"api":"./JS/drpy.min.js","ext":"./JS/碟调影视.js"},
	{"key":"大米星球","name":"大米星球","type":3,"api":"./JS/drpy.min.js","ext":"./JS/大米星球.js"},
	{"key":"在线之家","name":"在线之家","type":3,"api":"./JS/drpy.min.js","ext":"./JS/在线之家.js"},
	{"key":"欧帝影院","name":"欧帝影院","type":3,"api":"./JS/drpy.min.js","ext":"./JS/欧帝影院.js"},
	{"key":"两个磁力","name":"两个磁力","type":3,"api":"./JS/drpy.min.js","ext":"./JS/两个磁力.js"},
	{"key":"热播之家","name":"热播之家","type":3,"api":"./JS/drpy.min.js","ext":"./JS/热播之家.js"},
	{"key":"金曼影视","name":"金曼影视","type":3,"api":"./JS/drpy.min.js","ext":"./JS/金曼影视.js"},
	{"key":"畅梦影视","name":"畅梦影视","type":3,"api":"./JS/drpy.min.js","ext":"./JS/畅梦影视.js"},
	{"key":"白嫖影视","name":"白嫖影视","type":3,"api":"csp_XBPQ","searchable":1,"quickSearch":1,"filterable":1,"ext":"./XBPQ/白嫖影视.json"},
	{"key":"圣城影视","name":"圣城影视","type":3,"api":"csp_XBPQ","searchable":1,"quickSearch":1,"filterable":1,"ext":"./XBPQ/圣城影视.json"},
	{"key":"冷曦影视","name":"冷曦影视","type":3,"api":"csp_XBPQ","searchable":1,"quickSearch":1,"filterable":1,"ext":"./XBPQ/冷曦影视.json"},
	{"key":"萌猫影视","name":"萌猫影视","type":3,"api":"csp_XBPQ","searchable":1,"quickSearch":1,"filterable":1,"ext":"./XBPQ/萌猫影视.json"},
	{"key":"蛋蛋影视","name":"蛋蛋影视","type":3,"api":"csp_XBPQ","searchable":1,"quickSearch":1,"filterable":1,"ext":"./XBPQ/蛋蛋影视.json"},
	{"key":"五五影视","name":"五五影视","type":3,"api":"csp_XBPQ","searchable":1,"quickSearch":1,"filterable":1,"ext":"./XBPQ/五五影视.json"},
	{"key":"柒月影视","name":"柒月影视","type":3,"api":"csp_XBPQ","searchable":1,"quickSearch":1,"filterable":1,"ext":"./XBPQ/柒月影视.json"},
	{"key":"威士影视","name":"威士影视","type":3,"api":"csp_XBPQ","searchable":1,"quickSearch":1,"filterable":1,"ext":"./XBPQ/威士影视.json"},
	{"key":"奇优影院","name":"奇优影院","type":3,"api":"csp_XBPQ","searchable":1,"quickSearch":1,"filterable":1,"ext":"./XBPQ/奇优影院.json"},
	{"key":"疯狗影视","name":"疯狗影视","type":3,"api":"csp_XBPQ","searchable":1,"quickSearch":1,"filterable":1,"ext":"./XBPQ/疯狗影视.json"},
	{"key":"追影视频","name":"追影视频","type":3,"api":"csp_XBPQ","searchable":1,"quickSearch":1,"filterable":1,"ext":"./XBPQ/追影视频.json"},
	{"key":"农民影视","name":"农民影视","type":3,"api":"csp_XYQHiker","searchable":1,"quickSearch":1,"filterable":1,"ext":"./XYQHiker/农民影视.json"},
	{"key":"子子影视","name":"子子影视","type":3,"api":"csp_XYQHiker","searchable":1,"quickSearch":1,"filterable":1,"ext":"./XYQHiker/子子影视.json"},
	{"key":"电影盒子","name":"电影盒子","type":3,"api":"csp_XYQHiker","searchable":1,"quickSearch":1,"filterable":1,"ext":"./XYQHiker/电影盒子.json"},
	{"key":"歪片星球","name":"歪片星球","type":3,"api":"csp_XYQHiker","searchable":1,"quickSearch":1,"filterable":1,"ext":"./XYQHiker/歪片星球.json"},
	{"key":"奇趣影视","name":"奇趣影视","type":3,"api":"csp_XYQHiker","searchable":1,"quickSearch":1,"filterable":1,"ext":"./XYQHiker/奇趣影视.json"},
	{"key":"四九资源","name":"四九资源","type":1,"api":"https://49zyw.com/api.php/provide/vod/","searchable":1,"changeable":1,"categories":["纪录片","动作片","爱情片","科幻片","恐怖片","剧情片","战争片","喜剧片","动画片","犯罪片","奇幻片","灾难片","悬疑片","其他片","欧美剧","香港剧","国产剧","韩国剧","台湾剧","泰国剧","日剧","海外剧","国产动漫","日本动漫","欧美动漫","海外动漫","大陆综艺","港台综艺","日韩综艺","欧美综艺","电影解说","体育赛事","短剧"]},
	{"key":"红牛资源","name":"红牛资源","type":1,"api":"https://www.hongniuzy2.com/api.php/provide/vod/","searchable":1,"changeable":1,"categories":["动作片","喜剧片","爱情片","科幻片","恐怖片","剧情片","战争片","国产剧","港澳剧","日剧","欧美剧","台湾剧","泰剧","韩剧","纪录片","动漫电影"]},
	{"key":"光速资源","name":"光速资源","type":1,"api":"http://api.guangsuapi.com/api.php/provide/vod/","searchable":1,"changeable":1,"categories":["动作片","喜剧片","爱情片","科幻片","剧情片","恐怖片","战争片","动漫电影","大陆剧","欧美剧","港澳剧","韩剧","日剧","台湾剧","泰剧","综艺","动漫","记录片"]},
	{"key":"极速资源","name":"极速资源","type":1,"api":"https://jszyapi.com/api.php/provide/vod/","searchable":1,"changeable":1,"categories":["日剧","马泰剧","内地剧","欧美剧","香港剧","韩剧","台湾剧","恐怖片","动画片","剧情片","战争片","动作片","记录片","爱情片","喜剧片","科幻片","灾难片","悬疑片","犯罪片","中国动漫","日本动漫","欧美动漫"]},
	{"key":"快车资源","name":"快车资源","type":1,"api":"https://caiji.kczyapi.com/api.php/provide/vod/","searchable":1,"changeable":1,"categories":["动作片","喜剧片","爱情片","科幻片","恐怖片","战争片","剧情片","动画片","纪录片","国产剧","香港剧","台湾剧","欧美剧","韩国剧","日本剧","泰国剧","海外剧","国产动漫","日本动漫","欧美动漫","大陆综艺","日韩综艺","港台综艺","欧美综艺"]},
	{"key":"索尼资源","name":"索尼资源","type":1,"api":"https://suoniapi.com/api.php/provide/vod/","searchable":1,"changeable":1,"categories":["动作片","喜剧片","爱情片","科幻片","恐怖片","剧情片","战争片","纪录片","动画片","国产剧","欧美剧","韩剧","日剧","港剧","台剧","泰剧","海外剧","大陆综艺","日韩综艺","港台综艺","欧美综艺","国产动漫","日韩动漫","欧美动漫","港台动漫","海外动漫"]},
	{"key":"量子资源","name":"量子资源","type":1,"api":"https://cj.lziapi.com/api.php/provide/vod/","searchable":1,"changeable":1,"categories":["动作片","喜剧片","科幻片","恐怖片","爱情片","剧情片","战争片","记录片","国产剧","欧美剧","香港剧","韩国剧","台湾剧","日本剧","海外剧","泰国剧","国产动漫","日韩动漫","欧美动漫","港台动漫","海外动漫","大陆综艺","港台综艺","日韩综艺","欧美综艺"]},
	{"key":"非凡资源","name":"非凡资源","type":1,"api":"http://cj.ffzyapi.com/api.php/provide/vod/","searchable":1,"changeable":1,"categories":["动作片","喜剧片","科幻片","恐怖片","爱情片","剧情片","战争片","记录片","国产剧","欧美剧","香港剧","韩国剧","台湾剧","日本剧","海外剧","泰国剧","国产动漫","日韩动漫","欧美动漫","港台动漫","海外动漫","大陆综艺","港台综艺","日韩综艺","欧美综艺"]},
	{"key":"豪华资源","name":"豪华资源","type":1,"api":"https://hhzyapi.com/api.php/provide/vod/?ac=list","searchable":1,"quickSearch":1,"categories":["内地剧","香港剧","欧美剧","韩剧","日剧","马泰剧","台湾剧","动画片","中国动漫","日本动漫","欧美动漫","剧情片","战争片","动作片","科幻片","记录片","爱情片","喜剧片","灾难片","悬疑片","犯罪片","大陆综艺","日韩综艺","港台综艺","欧美综艺"]},	
	{"key":"iKun资源","name":"iKun资源","type":1,"api":"https://ikunzyapi.com/api.php/provide/vod/","searchable": 1,"quickSearch": 1,"categories": ["动作片","喜剧片","爱情片","科幻片","恐怖片","剧情片","战争片","惊悚片","家庭片","古装片","历史片","悬疑片","犯罪片","灾难片","记录片","短片","动画片","国产剧","香港剧","韩国剧","欧美剧","台湾剧","日本剧","海外剧","泰国剧","大陆综艺","港台综艺","日韩综艺","欧美综艺","国产动漫","欧美动漫","日本动漫"]},
	{"key":"淘片资源","name":"淘片资源","type":0,"api": "https://taopianapi.com/cjapi/mc10/vod/xml.html"},
	{"key":"AnFuns","name":"AnFuns","type":3,"api":"./JS/drpy.min.js","ext":"./JS/AnFuns.js"},
	{"key":"Anime1","name":"Anime1","type":3,"api":"./JS/drpy.min.js","ext":"./JS/Anime1.js"},
	{"key":"NT动漫","name":"NT动漫","type":3,"api":"./JS/drpy.min.js","ext":"./JS/NT动漫.js"},
	{"key":"58动漫","name":"58动漫","type":3,"api":"./JS/drpy.min.js","ext":"./JS/58动漫.js"},
	{"key":"二三三","name":"二三三","type":3,"api":"csp_XBPQ","searchable":1,"quickSearch":1,"filterable":1,"ext":"./XBPQ/二三三.json"},
	{"key":"路漫漫","name":"路漫漫","type":3,"api":"./JS/drpy.min.js","ext":"./JS/路漫漫.js"},
	{"key":"动漫岛","name":"动漫岛","type":3,"api":"./JS/drpy.min.js","ext":"./JS/动漫岛.js"},
	{"key":"去看吧","name":"去看吧","type":3,"api":"./JS/drpy.min.js","ext":"./JS/去看吧.js"},
	{"key":"爱弹幕","name":"爱弹幕","type":3,"api":"./JS/drpy.min.js","ext":"./JS/爱弹幕.js"},
	{"key":"异世界","name":"异世界","type":3,"api":"./JS/drpy.min.js","ext":"./JS/异世界.js"},
	{"key":"喵次元","name":"喵次元","type":3,"api":"./JS/drpy.min.js","ext":"./JS/喵次元.js"},
	{"key":"喵物次元","name":"喵物次元","type":3,"api":"./JS/drpy.min.js","ext":"./JS/喵物次元.js"},
	{"key":"稀饭动漫","name":"稀饭动漫","type":3,"api":"csp_Xifan","searchable":1,"quickSearch":1,"filterable":0},
	{"key":"曲奇动漫","name":"曲奇动漫","type":3,"api":"./JS/drpy.min.js","ext":"./JS/曲奇动漫.js"},
	{"key":"妮可动漫","name":"妮可动漫","type":3,"api":"./JS/drpy.min.js","ext":"./JS/妮可动漫.js"},
	{"key":"奇米动漫","name":"奇米动漫","type":3,"api":"./JS/drpy.min.js","ext":"./JS/奇米动漫.js"},
	{"key":"怡萱动漫","name":"怡萱动漫","type":3,"api":"./JS/drpy.min.js","ext":"./JS/怡萱动漫.js"},
	{"key":"维奇动漫","name":"维奇动漫","type":3,"api":"csp_XBPQ","searchable":1,"quickSearch":1,"filterable":0,"ext":"./XBPQ/维奇动漫.json"},
	{"key":"动漫巴士","name":"动漫巴士","type":3,"api":"csp_XBPQ","searchable":1,"quickSearch":1,"filterable":0,"ext":"./XBPQ/动漫巴士.json"},
	{"key":"樱花动漫","name":"樱花动漫","type":3,"api":"csp_XBPQ","ext":"分类url:https://www.857yhdm.com/show/{cateId}--{by}------{catePg}---{year}.html,分类:日本动漫$ribendongman#国产动漫$guochandongman#动漫电影$dongmandianying#欧美动漫$omeidongman"},
	{"key":"三六零弹幕","name":"弹幕｜三六零","type":3,"api":"csp_Sp360","searchable":1,"filterable":1,"changeable":1,"ext":{"danmu":true},"jar":"./danmu.jar;md5;664ae622641247e6fe7bf1b9f2767fdc"},
	{"key":"南瓜弹幕","name":"弹幕｜南瓜","type":3,"api":"csp_Nangua","searchable":1,"quickSearch":1,"filterable":1,"ext":{"danmu":true},"jar":"./danmu.jar;md5;664ae622641247e6fe7bf1b9f2767fdc"},
	{"key":"酷看弹幕","name":"弹幕｜酷看","type":3,"api":"csp_Kkys","searchable":1,"quickSearch":1,"filterable":1,"ext":{"danmu":true},"jar":"./danmu.jar;md5;664ae622641247e6fe7bf1b9f2767fdc"},
	{"key":"厂长弹幕","name":"弹幕｜厂长","type":3,"api":"csp_Czzy","searchable":1,"quickSearch":1,"filterable":1,"ext":{"danmu":true},"jar":"./danmu.jar;md5;664ae622641247e6fe7bf1b9f2767fdc"},
	{"key":"机器人弹幕","name":"弹幕｜机器人","type":3,"api":"csp_Ikanbot","searchable":1,"quickSearch":1,"filterable":1,"ext":{"danmu":true},"jar":"./danmu.jar;md5;664ae622641247e6fe7bf1b9f2767fdc"},
	{"key":"白嫖弹幕","name":"弹幕｜白嫖","type":3,"api":"csp_Cs1369","playerType":1,"searchable":1,"quickSearch":1,"filterable":1,"ext":{"danmu":true},"jar":"./danmu.jar;md5;664ae622641247e6fe7bf1b9f2767fdc"},
	{"key":"天天弹幕","name":"弹幕｜天天","type":3,"api":"csp_TianTian","searchable":1,"quickSearch":1,"filterable":1,"ext":{"danmu":true},"jar":"./danmu.jar;md5;664ae622641247e6fe7bf1b9f2767fdc"},
	{"key":"荐片弹幕","name":"弹幕｜荐片","type":3,"api":"csp_Jianpian","playerType":1,"searchable":1,"quickSearch":1,"filterable":1,"ext":{"danmu":true},"jar":"./danmu.jar;md5;664ae622641247e6fe7bf1b9f2767fdc"},
	{"key":"哔嘀弹幕","name":"弹幕｜哔嘀","type":3,"api":"csp_Bdys","searchable":1,"quickSearch":1,"filterable":1,"ext":{"danmu":true},"jar":"./danmu.jar;md5;664ae622641247e6fe7bf1b9f2767fdc"},
	{"key":"不太灵弹幕","name":"弹幕｜不太灵","type":3,"api":"csp_Bt0","searchable":1,"changeable":1,"ext":{"danmu":true},"jar":"./danmu.jar;md5;664ae622641247e6fe7bf1b9f2767fdc"},
	{"key":"玩偶弹幕","name":"弹幕｜玩偶","type":3,"api":"csp_Wogg","searchable":1,"quickSearch":1,"filterable":1,"ext":{"token":"http://127.0.0.1:9978/file/TVBox/token.txt","site":"https://www.wogg.xyz","danmu":true},"jar":"./danmu.jar;md5;664ae622641247e6fe7bf1b9f2767fdc"},
	{"key":"搜索弹幕","name":"弹幕｜搜索","type":3,"api":"csp_PanSearch","searchable":1,"filterable":0,"changeable":1,"ext":{"token":"http://127.0.0.1:9978/file/TVBox/token.txt","danmu":true},"jar":"./danmu.jar;md5;664ae622641247e6fe7bf1b9f2767fdc"},
	{"key":"七夜弹幕","name":"弹幕｜七夜","type":3,"api":"csp_Dovx","searchable":1,"filterable":0,"changeable":1,"ext":{"token":"http://127.0.0.1:9978/file/TVBox/token.txt","danmu":true},"jar":"./danmu.jar;md5;664ae622641247e6fe7bf1b9f2767fdc"},
	{"key":"云云弹幕","name":"弹幕｜云云","type":3,"api":"csp_Upys","searchable":1,"filterable":0,"changeable":1,"ext":{"token":"http://127.0.0.1:9978/file/TVBox/token.txt","danmu":true},"jar":"./danmu.jar;md5;664ae622641247e6fe7bf1b9f2767fdc"},
	{"key":"云搜弹幕","name":"弹幕｜云搜","type":3,"api":"csp_UpYun","searchable":1,"filterable":0,"changeable":1,"ext":{"token":"http://127.0.0.1:9978/file/TVBox/token.txt","danmu":true},"jar":"./danmu.jar;md5;664ae622641247e6fe7bf1b9f2767fdc"},
	{"key":"盘搜弹幕","name":"弹幕｜盘搜","type":3,"api":"csp_PanSou","searchable":1,"filterable":0,"changeable":1,"ext":{"token":"http://127.0.0.1:9978/file/TVBox/token.txt","danmu":true},"jar":"./danmu.jar;md5;664ae622641247e6fe7bf1b9f2767fdc"},
	{"key":"易搜弹幕","name":"弹幕｜易搜","type":3,"api":"csp_YiSo","searchable":1,"filterable":0,"changeable":1,"ext":{"token":"http://127.0.0.1:9978/file/TVBox/token.txt","danmu":true,"cookie":"satoken=5f91a828-2198-4630-ac41-da5a217c01d7"},"jar":"./danmu.jar;md5;664ae622641247e6fe7bf1b9f2767fdc"},
	{"key":"云盘弹幕","name":"弹幕｜云盘","type":3,"api":"csp_Yunpan4k","searchable":1,"filterable":0,"changeable":1,"ext":{"token":"http://127.0.0.1:9978/file/TVBox/token.txt","danmu":true},"jar":"./danmu.jar;md5;664ae622641247e6fe7bf1b9f2767fdc"},
	{"key":"小纸条弹幕","name":"弹幕｜小纸条","type":3,"api":"csp_XiaoZhiTiao","searchable":1,"filterable":1,"changeable":1,"ext":{"token":"http://127.0.0.1:9978/file/TVBox/token.txt","danmu":true},"jar":"./danmu.jar;md5;664ae622641247e6fe7bf1b9f2767fdc"},
	{"key":"荐片","name":"磁力｜荐片","type":3,"api":"csp_JianPian","playerType":1,"searchable":1,"quickSearch":1,"filterable":1,"ext":"https://ownjpykxttjzuhy.jiesiwa.com"},
	{"key":"New6v","name":"磁力｜New6V","type":3,"api":"csp_New6v","searchable":1,"quickSearch":1,"filterable":1,"ext":"https://www.xb6v.com"},
	{"key":"SeedHub","name":"磁力｜SeedHub","type":3,"api":"csp_SeedHub","searchable":1,"quickSearch":1,"filterable":1},
	{"key":"磁力熊","name":"磁力｜磁力熊","type":3,"api":"./JS/drpy.min.js","ext":"./JS/磁力熊.js"},
	{"key":"美剧迷","name":"磁力｜美剧迷","type":3,"api":"csp_MeijuMi","searchable":1,"quickSearch":1,"filterable":1},
	{"key":"迅雷吧","name":"磁力｜迅雷吧","type":3,"api":"csp_Xunlei8","searchable":1,"quickSearch":1,"filterable":1},
	{"key":"电影港","name":"磁力｜电影港","type":3,"api":"csp_XYQHiker","searchable":1,"quickSearch":1,"filterable":1,"ext":"./XYQHiker/电影港.json"},
	{"key":"BT天堂","name":"磁力｜BT天堂","type":3,"api":"csp_XYQHiker","searchable":1,"quickSearch":1,"filterable":1,"ext":"./XYQHiker/BT天堂.json"},
	{"key":"Mp4电影","name":"磁力｜Mp4电影","type":3,"api":"csp_Mp4Mov","searchable":1,"quickSearch":1,"filterable":1},
	{"key":"高清MP4","name":"磁力｜高清MP4","type":3,"api":"csp_XYQHiker","searchable":1,"quickSearch":1,"filterable":1,"ext":"./XYQHiker/高清MP4.json"},
	{"key":"哔嘀影视","name":"磁力｜哔嘀影视","type":3,"api":"csp_XYQHiker","searchable":1,"quickSearch":1,"filterable":1,"ext":"./XYQHiker/哔嘀影视.json"},
	{"key":"酷吧电影","name":"磁力｜酷吧电影","type":3,"api":"csp_KubaCL","searchable":1,"quickSearch":1,"filterable":1},
	{"key":"美剧天堂","name":"磁力｜美剧天堂","type":3,"api":"csp_MeijuTT","searchable":1,"quickSearch":1,"filterable":1},
	{"key":"我的阿里","name":"我的｜阿里","type":3,"api":"csp_MyAli","searchable":0,"quickSearch":0,"filterable":0,"ext":{"token":"http://127.0.0.1:9978/file/TVBox/token.txt"},"style":{"type":"list"},"jar":"./danmu.jar;md5;664ae622641247e6fe7bf1b9f2767fdc"},
	{"key":"阿里合集","name":"阿里｜合集","type":3,"api":"csp_AliShare","searchable":1,"changeable":0,"filterable":0,"ext":{"token":"http://127.0.0.1:9978/file/TVBox/token.txt","share":""},"style":{"type":"list"},"jar":"./danmu.jar;md5;664ae622641247e6fe7bf1b9f2767fdc"},
	{"key":"玩偶哥哥","name":"云盘｜玩偶","type":3,"api":"csp_XYQHikerAL","searchable":1,"quickSearch":1,"filterable":1,"ext":"./XYQHiker/玩偶哥哥.json"},
	{"key":"天天开心","name":"云盘｜开心","type":3,"api":"csp_XYQHikerAL","searchable":1,"quickSearch":1,"filterable":1,"ext":"./XYQHiker/天天开心.json"},
	{"key":"土豆网盘","name":"云盘｜土豆","type":3,"api":"csp_XYQHikerAL","searchable":1,"quickSearch":1,"filterable":1,"ext":"./XYQHiker/土豆网盘.json"},
	{"key":"多多影音","name":"云盘｜多多","type":3,"api":"csp_XYQHikerAL","searchable":1,"quickSearch":1,"filterable":1,"ext":"./XYQHiker/多多影音.json"},
	{"key":"云盘搜索","name":"云盘｜搜索","type":3,"api":"csp_XYQHiker","searchable":1,"quickSearch":1,"filterable":1,"ext":"./XYQHiker/云盘搜索.json"},
	{"key":"DOVX搜索","name":"云盘｜七夜","type":3,"api":"csp_XYQHiker","searchable":1,"quickSearch":1,"filterable":1,"ext":"./XYQHiker/DOVX搜索.json"},
	{"key":"影搜","name":"云盘｜影搜","type":3,"api":"csp_XYQHiker","searchable":1,"quickSearch":1,"filterable":1,"ext":"./XYQHiker/影搜.json"},
	{"key":"Upyunso","name":"云盘｜云搜","type":3,"api":"csp_Upyunso","searchable":1,"quickSearch":1,"filterable":0,"ext":"http://127.0.0.1:9978/file/TVBox/token.txt"},
	{"key":"AliPS","name":"云盘｜盘搜","type":3,"api":"csp_AliPS","searchable":1,"quickSearch":1,"filterable":0,"ext":"http://127.0.0.1:9978/file/TVBox/token.txt"},
	{"key":"Yisou","name":"云盘｜易搜","type":3,"api":"csp_Yisou","searchable":1,"quickSearch":1,"filterable":0,"ext":"http://127.0.0.1:9978/file/TVBox/token.txt"},
	{"key":"我的小站","name":"云盘｜小站","type":3,"api":"csp_XYQHikerAL","searchable":1,"quickSearch":1,"filterable":1,"ext":"./XYQHiker/我的小站.json"},
	{"key":"阿里苏苏","name":"云盘｜苏苏","type":3,"api":"csp_XYQHikerAL","searchable":1,"quickSearch":1,"filterable":1,"ext":"./XYQHiker/阿里苏苏.json"},
	{"key":"云盘论坛","name":"云盘｜论坛","type":3,"api":"csp_XYQHikerAL","searchable":1,"quickSearch":1,"filterable":1,"ext":"./XYQHiker/云盘论坛.json"},
	{"key":"云盘资源","name":"云盘｜资源","type":3,"api":"csp_XYQHikerAL","searchable":1,"quickSearch":1,"filterable":1,"ext":"./XYQHiker/云盘资源.json"},
	{"key":"云盘资源分享","name":"云盘｜分享","type":3,"api":"csp_XYQHikerAL","searchable":1,"quickSearch":1,"filterable":1,"ext":"./XYQHiker/云盘资源分享.json"},
	{"key":"豆豆飞搜索","name":"云盘｜豆豆飞","type":3,"api":"csp_XYQHikerAL","searchable":1,"quickSearch":1,"filterable":1,"ext":"./XYQHiker/豆豆飞搜索.json"},
	{"key":"Gitcafe","name":"云盘｜小纸条","type":3,"api":"csp_Gitcafe","searchable":1,"quickSearch":1,"filterable":1,"ext":"http://127.0.0.1:9978/file/TVBox/token.txt"},
	{"key":"夸克玩偶弹幕","name":"夸克｜玩偶","type":3,"api":"csp_Wobg","searchable":1,"quickSearch":1,"filterable":1,"changeable":1,"ext":{"token":"http://127.0.0.1:9978/file/TVBox/token.txt","cookie":"http://127.0.0.1:9978/file/TVBox/quark.txt","danmu":true},"jar":"./danmu.jar;md5;664ae622641247e6fe7bf1b9f2767fdc"},
	{"key":"夸克开心弹幕","name":"夸克｜开心","type":3,"api":"csp_Wobg","quickSearch":1,"changeable":1,"filterable":1,"ext":{"token":"http://127.0.0.1:9978/file/TVBox/token.txt","cookie":"http://127.0.0.1:9978/file/TVBox/quark.txt","site":"http://m.kxys.site:3328","danmu":true},"jar":"./danmu.jar;md5;664ae622641247e6fe7bf1b9f2767fdc"},
	{"key":"夸克土豆弹幕","name":"夸克｜土豆","type":3,"api":"csp_Wobg","quickSearch":1,"changeable":1,"filterable":1,"ext":{"token":"http://127.0.0.1:9978/file/TVBox/token.txt","cookie":"http://127.0.0.1:9978/file/TVBox/quark.txt","site":"https://tudou.lvdoui.top","danmu":true},"jar":"./danmu.jar;md5;664ae622641247e6fe7bf1b9f2767fdc"},
	{"key":"夸克多多弹幕","name":"夸克｜多多","type":3,"api":"csp_Wobg","quickSearch":1,"changeable":1,"filterable":1,"ext":{"token":"http://127.0.0.1:9978/file/TVBox/token.txt","cookie":"http://127.0.0.1:9978/file/TVBox/quark.txt","site":"https://tv.yydsys.top","danmu":true},"jar":"./danmu.jar;md5;664ae622641247e6fe7bf1b9f2767fdc"},
	{"key":"夸克团长弹幕","name":"夸克｜团长","type":3,"api":"csp_Tzfile","searchable":1,"filterable":1,"changeable":1,"ext":{"token":"http://127.0.0.1:9978/file/TVBox/token.txt","cookie":"http://127.0.0.1:9978/file/TVBox/quark.txt","danmu":true},"jar":"./danmu.jar;md5;664ae622641247e6fe7bf1b9f2767fdc"},
	{"key":"夸克盘搜弹幕","name":"夸克｜盘搜","type":3,"api":"csp_Qkpanso","searchable":1,"filterable":1,"changeable":1,"ext":{"cookie":"http://127.0.0.1:9978/file/TVBox/quark.txt","danmu":true},"jar":"./danmu.jar;md5;664ae622641247e6fe7bf1b9f2767fdc"},
	{"key":"夸克影搜弹幕","name":"夸克｜影搜","type":3,"api":"csp_Yingso","searchable":1,"filterable":0,"changeable":1,"ext":{"token":"http://127.0.0.1:9978/file/TVBox/token.txt","cookie":"http://127.0.0.1:9978/file/TVBox/quark.txt","danmu":true},"jar":"./danmu.jar;md5;664ae622641247e6fe7bf1b9f2767fdc"},
	{"key":"夸克趣盘搜弹幕","name":"夸克｜趣盘搜","type":3,"api":"csp_QuPanSou","searchable":1,"quickSearch":1,"filterable":1,"changeable":1,"ext":{"cookie":"http://127.0.0.1:9978/file/TVBox/quark.txt","danmu":true},"jar":"./danmu.jar;md5;664ae622641247e6fe7bf1b9f2767fdc"},
	{"key":"夸克爱盘搜弹幕","name":"夸克｜爱盘搜","type":3,"api":"csp_AiPanSou","searchable":1,"quickSearch":1,"filterable":1,"changeable":1,"ext":{"cookie":"http://127.0.0.1:9978/file/TVBox/quark.txt","danmu":true},"jar":"./danmu.jar;md5;664ae622641247e6fe7bf1b9f2767fdc"}],

"parses":
	[{"name":"聚合","type":3,"url":"Demo"},
	{"name":"光之影院","type":1,"url":"http://jx.meowtv.cn/?url="},
	{"name":"线路1","type":0,"url":"https://jx.xmflv.com/?url=","ext":{"header":{"user-agent":"Mozilla/5.0 (Windows NT 10.0; Win64; x64) AppleWebKit/537.36 (KHTML, like Gecko) Chrome/110.0.0.0 Safari/537.36 Edg/110.0.1587.57"}}},
	{"name":"线路2","type":0,"url":"https://jx.quankan.app/?url=","ext":{"header":{"user-agent":"Mozilla/5.0 (Linux; Android 13; V2049A Build/TP1A.220624.014; wv) AppleWebKit/537.36 (KHTML, like Gecko) Version/4.0 Chrome/116.0.0.0 Mobile Safari/537.36"}}},
	{"name":"线路3","type":0,"url":"https://jx.yparse.com/index.php?url=","ext":{"header":{"user-agent":"Mozilla/5.0 (Linux; Android 13; V2049A Build/TP1A.220624.014; wv) AppleWebKit/537.36 (KHTML, like Gecko) Version/4.0 Chrome/116.0.0.0 Mobile Safari/537.36"}}},
	{"name":"线路4","type":0,"url":"https://jx.jsonplayer.com/player/?url=","ext":{"header":{"user-agent":"Mozilla/5.0 (Linux; Android 13; V2049A Build/TP1A.220624.014; wv) AppleWebKit/537.36 (KHTML, like Gecko) Version/4.0 Chrome/116.0.0.0 Mobile Safari/537.36"}}},
	{"name":"线路5","type":0,"url":"https://www.yemu.xyz/?url=","ext":{"flag":["qq","腾讯","qiyi","iqiyi","爱奇艺","奇艺","youku","优酷","mgtv","芒果","letv","乐视","pptv","PPTV","sohu","bilibili","哔哩哔哩","哔哩"]}},
	{"name":"线路6","type":0,"url":"https://jx.777jiexi.com/player/?url="},
	{"name":"线路7","type":0,"url":"https://www.8090g.cn/?url="},
	{"name":"线路8","type":0,"url":"https://jx.yangtu.top?url="},
	{"name":"线路9","type":0,"url":"https://jx.m3u8.tv/jiexi/?url="},
	{"name":"线路10","type":0,"url":"https://www.ckplayer.vip/jiexi/?url="}],
	
"rules":
	[{"name":"量子广告","hosts":["vip.lz","hd.lz",".cdnlz"],"regex":["17.19","#EXT-X-DISCONTINUITY\\r*\\n*#EXTINF:7\\.166667,[\\s\\S]*?#EXT-X-DISCONTINUITY","#EXTINF.*?\\s+.*?1o.*?\\.ts\\s+"]},
	{"name":"非凡广告","hosts":["vip.ffzy","hd.ffzy"],"regex":["17.99","#EXT-X-DISCONTINUITY\\r*\\n*#EXTINF:6\\.400000,[\\s\\S]*?#EXT-X-DISCONTINUITY","#EXTINF.*?\\s+.*?1170(20|32).*?\\.ts\\s+","#EXTINF.*?\\s+.*?116977.*?\\.ts\\s+"]},
	{"name":"索尼广告","hosts":["suonizy"],"regex":["#EXT-X-DISCONTINUITY\\r*\\n*#EXTINF:1\\.000000,[\\s\\S]*?#EXT-X-DISCONTINUITY","#EXTINF.*?\\s+.*?p1ayer.*?\\.ts\\s+","#EXTINF.*?\\s+.*?\\/video\\/original.*?\\.ts\\s+"]},
	{"name":"暴风广告","hosts":["bfzy","bfbfvip"],"regex":["#EXTINF.*?\\s+.*?adjump.*?\\.ts\\s+"]},
	{"name":"星星广告","hosts":["aws.ulivetv.net"],"regex":["#EXT-X-DISCONTINUITY\\r*\\n*#EXTINF:8,[\\s\\S]*?#EXT-X-DISCONTINUITY"]},
	{"name":"快看广告","hosts":["kuaikan"],"regex":["#EXT-X-KEY:METHOD=NONE\\r*\\n*#EXTINF:5,[\\s\\S]*?#EXT-X-DISCONTINUITY","#EXT-X-KEY:METHOD=NONE\\r*\\n*#EXTINF:2\\.4,[\\s\\S]*?#EXT-X-DISCONTINUITY"]},
	{"name":"磁力广告","hosts":["magnet"],"regex":["更多","请访问","example","社 區","x u u","直 播","更 新","社 区","有趣","有 趣","英皇体育","全中文AV在线","澳门皇冠赌场","哥哥快来","美女荷官","裸聊","新片首发","UUE29"]},
	{"name":"一起看广告","hosts":["yqk88"],"regex":["18.4","15.1666","16.5333","#EXT-X-DISCONTINUITY\\r*\\n*[\\s\\S]*?#EXT-X-CUE-IN"]},
	{"name":"火山嗅探","hosts":["huoshan.com"],"regex":["item_id="]},
	{"name":"抖音嗅探","hosts":["douyin.com"],"regex":["is_play_url="]},
	{"name":"农民嗅探","hosts":["toutiaovod.com"],"regex":["video/tos/cn"]}],
"doh":
	[{"name":"Google","url":"https://dns.google/dns-query","ips":["8.8.4.4","8.8.8.8"]},
	{"name":"Cloudflare","url":"https://cloudflare-dns.com/dns-query","ips":["1.1.1.1","1.0.0.1","2606:4700:4700::1111","2606:4700:4700::1001"]},
	{"name":"AdGuard","url":"https://dns.adguard.com/dns-query","ips":["94.140.14.140","94.140.14.141"]},
	{"name":"DNSWatch","url":"https://resolver2.dns.watch/dns-query","ips":["84.200.69.80","84.200.70.40"]},
	{"name":"Quad9","url":"https://dns.quad9.net/dns-quer","ips":["9.9.9.9","149.112.112.112"]}],
"lives":[
		{"name":"live","type":0,"url":"./live.txt","epg":"http://epg.112114.xyz/?ch={name}&date={date}","logo":"https://epg.112114.xyz/logo/{name}.png"},
		{"name":"IPV6","type":0,"url":"https://live.fanmingming.com/tv/m3u/ipv6.m3u","playerType":1,"ua":"okhttp/3.15","epg":"http://epg.112114.xyz/?ch={name}&date={date}","logo":"https://epg.112114.xyz/logo/{name}.png"},
		{"name":"live2","type":0,"playerType":1,"url":"http://我不是.肥猫.live/TV/tvzb.txt","epg":"http://epg.112114.xyz/?ch={name}&date={date}","logo":"https://epg.112114.xyz/logo/{name}.png"},
		{"name":"joe","type":0,"url":"https://mirror.ghproxy.com/https://raw.githubusercontent.com/joevess/IPTV/main/home.m3u8","playerType":1,"ua":"okhttp/3.15","epg":"http://epg.112114.xyz/?ch={name}&date={date}","logo":"https://epg.112114.xyz/logo/{name}.png"}
		],
"flags":
	["youku","优酷","优 酷","优酷视频","qq","腾讯","腾 讯","腾讯视频","iqiyi","qiyi","奇艺","爱奇艺","爱 奇 艺","m1905","xigua","letv","leshi","乐视","乐 视","sohu","搜狐","搜 狐","搜狐视频","tudou","pptv","mgtv","芒果","imgo","芒果TV","芒 果 T V","bilibili","哔 哩","哔 哩 哔 哩"],
"ijk":
	[{"group":"软解码","options":
		[{"category":4,"name":"opensles","value":"0"},
		{"category":4,"name":"overlay-format","value":"842225234"},
		{"category":4,"name":"framedrop","value":"1"},
		{"category":4,"name":"soundtouch","value":"1"},
		{"category":4,"name":"start-on-prepared","value":"1"},
		{"category":1,"name":"http-detect-range-support","value":"0"},
		{"category":1,"name":"fflags","value":"fastseek"},
		{"category":2,"name":"skip_loop_filter","value":"48"},
		{"category":4,"name":"reconnect","value":"1"},
		{"category":4,"name":"enable-accurate-seek","value":"0"},
		{"category":4,"name":"mediacodec","value":"0"},
		{"category":4,"name":"mediacodec-auto-rotate","value":"0"},
		{"category":4,"name":"mediacodec-handle-resolution-change","value":"0"},
		{"category":4,"name":"mediacodec-hevc","value":"0"},
		{"category":1,"name":"dns_cache_timeout","value":"600000000"}]},
	{"group":"硬解码","options":
		[{"category":4,"name":"opensles","value":"0"},
		{"category":4,"name":"overlay-format","value":"842225234"},
		{"category":4,"name":"framedrop","value":"1"},
		{"category":4,"name":"soundtouch","value":"1"},
		{"category":4,"name":"start-on-prepared","value":"1"},
		{"category":1,"name":"http-detect-range-support","value":"0"},
		{"category":1,"name":"fflags","value":"fastseek"},
		{"category":2,"name":"skip_loop_filter","value":"48"},
		{"category":4,"name":"reconnect","value":"1"},
		{"category":4,"name":"enable-accurate-seek","value":"0"},
		{"category":4,"name":"mediacodec","value":"1"},
		{"category":4,"name":"mediacodec-auto-rotate","value":"1"},
		{"category":4,"name":"mediacodec-handle-resolution-change","value":"1"},
		{"category":4,"name":"mediacodec-hevc","value":"1"},
		{"category":1,"name":"dns_cache_timeout","value":"600000000"}]}],
"ads":
	["static-mozai.4gtv.tv","mimg.0c1q0l.cn","www.googletagmanager.com","www.google-analytics.com","mc.usihnbcq.cn","mg.g1mm3d.cn","mscs.svaeuzh.cn","cnzz.hhttm.top","tp.vinuxhome.com","cnzz.mmstat.com","www.baihuillq.com","s23.cnzz.com","z3.cnzz.com","c.cnzz.com","stj.v1vo.top","z12.cnzz.com","img.mosflower.cn","tips.gamevvip.com","ehwe.yhdtns.com","xdn.cqqc3.com","www.jixunkyy.cn","sp.chemacid.cn","hm.baidu.com","s9.cnzz.com","z6.cnzz.com","um.cavuc.com","mav.mavuz.com","wofwk.aoidf3.com","z5.cnzz.com","xc.hubeijieshikj.cn","tj.tianwenhu.com","xg.gars57.cn","k.jinxiuzhilv.com","cdn.bootcss.com","ppl.xunzhuo123.com","xomk.jiangjunmh.top","img.xunzhuo123.com","z1.cnzz.com","s13.cnzz.com","xg.huataisangao.cn","z7.cnzz.com","xg.huataisangao.cn","z2.cnzz.com","s96.cnzz.com","q11.cnzz.com","thy.dacedsfa.cn","xg.whsbpw.cn","s19.cnzz.com","z8.cnzz.com","s4.cnzz.com","f5w.as12df.top","ae01.alicdn.com","www.92424.cn","k.wudejia.com","vivovip.mmszxc.top","qiu.xixiqiu.com","cdnjs.hnfenxun.com","cms.qdwght.com"]
}
