{

  "classes": [

    {

      "type_name": "京剧",

      "type_id": "京剧"

    },

    {

      "type_name": "越剧",

      "type_id": "越剧"

    },

    {

      "type_name": "芗剧",

      "type_id": "芗剧"

    },

    {

      "type_name": "蒲剧",

      "type_id": "蒲剧"

    },

     {

      "type_name": "闽剧",

      "type_id": "闽剧"

    },

    {

      "type_name": "喊麦",

      "type_id": "喊麦"

    },

    {

      "type_name": "陕北说书",

      "type_id": "陕北说书"

    },

     {

      "type_name": "庐剧",

      "type_id": "庐剧"

    },

    {

      "type_name": "吕剧",

      "type_id": "吕剧"

    },

    {

      "type_name": "眉户",

      "type_id": "眉户"

    },

    {

      "type_name": "歌仔戏",

      "type_id": "歌仔戏"

    },

    

    {

      "type_name": "黄梅戏",

      "type_id": "黄梅戏"

    },

    {

      "type_name": "黄梅戏",

      "type_id": "黄梅戏"

    },

    {

      "type_name": "评剧",

      "type_id": "评剧"

    },

    {

      "type_name": "豫剧",

      "type_id": "豫剧"

    },

    {

      "type_name": "沪剧",

      "type_id": "沪剧"

    },

    {

      "type_name": "昆曲",

      "type_id": "昆曲"

    },

    {

      "type_name": "花鼓戏",

      "type_id": "花鼓戏"

    },

    {

      "type_name": "潮剧",

      "type_id": "潮剧"

    },

    {

      "type_name": "超清潮剧",

      "type_id": "超清潮剧"

    },



    {

      "type_name": "百花潮剧院",

      "type_id": "百花潮剧院"

    },

        {

      "type_name": "香港潮剧",

      "type_id": "香港潮剧"

    },

        {

      "type_name": "潮剧院",

      "type_id": "潮剧院"

    },

       {

      "type_name": "潮剧团",

      "type_id": "潮剧团"

    },

        {

      "type_name": "潮剧全剧",

      "type_id": "潮剧全剧"

    }, 

     {

      "type_name": "潮剧选段",

      "type_id": "潮剧选段"

    },

    {

      "type_name": "名家潮剧",

      "type_id": "名家潮剧"

    },

  

    {

      "type_name": "潮汕小品",

      "type_id": "潮汕小品"

    },

        {

      "type_name": "潮汕讲古",

      "type_id": "潮汕讲古"

    },







    {

      "type_name": "河北梆子",

      "type_id": "河北梆子"

    },

    {

      "type_name": "梆子腔",

      "type_id": "梆子腔"

    },

    {

      "type_name": "晋剧",

      "type_id": "晋剧"

    },

    {

      "type_name": "龙江剧",

      "type_id": "龙江剧"

    },

    {

      "type_name": "越调",

      "type_id": "越调"

    },

    {

      "type_name": "河南曲剧",

      "type_id": "河南曲剧"

    },

    {

      "type_name": "山东梆子",

      "type_id": "山东梆子"

    },

    {

      "type_name": "淮剧",

      "type_id": "淮剧"

    },

    {

      "type_name": "滑稽戏",

      "type_id": "滑稽戏"

    },

    {

      "type_name": "婺剧",

      "type_id": "婺剧"

    },

    {

      "type_name": "绍剧",

      "type_id": "绍剧"

    },

    {

      "type_name": "徽剧",

      "type_id": "徽剧"

    },

    {

      "type_name": "雁剧",

      "type_id": "雁剧"

    },

    {

      "type_name": "上党梆子",

      "type_id": "上党梆子"

    },

    {

      "type_name": "秦腔",

      "type_id": "秦腔"

    },

    {

      "type_name": "武安平调",

      "type_id": "武安平调"

    },

    {

      "type_name": "二人台",

      "type_id": "二人台"

    },

    {

      "type_name": "吉剧",

      "type_id": "吉剧"

    },

    {

      "type_name": "高腔",

      "type_id": "高腔"

    }

  ],

  "filter": {

    "搞笑": [

      {

        "key": "duration",

        "name": "时长",

        "value": [

          {

            "n": "全部",

            "v": "0"

          },

          {

            "n": "60分钟以上",

            "v": "4"

          },

          {

            "n": "30~60分钟",

            "v": "3"

          },

          {

            "n": "10~30分钟",

            "v": "2"

          },

          {

            "n": "10分钟以下",

            "v": "1"

          }

        ]

      }

    ],

    "潮剧": [

      {

        "key": "duration",

        "name": "时长",

        "value": [

          {

            "n": "全部",

            "v": "0"

          },

          {

            "n": "60分钟以上",

            "v": "4"

          },

          {

            "n": "30~60分钟",

            "v": "3"

          },

          {

            "n": "10~30分钟",

            "v": "2"

          },

          {

            "n": "10分钟以下",

            "v": "1"

          }

        ]

      }

    ],

   

       "超清潮剧": [

      {

        "key": "duration",

        "name": "时长",

        "value": [

          {

            "n": "全部",

            "v": "0"

          },

          {

            "n": "60分钟以上",

            "v": "4"

          },

          {

            "n": "30~60分钟",

            "v": "3"

          },

          {

            "n": "10~30分钟",

            "v": "2"

          },

          {

            "n": "10分钟以下",

            "v": "1"

          }

        ]

      }

    ],

     

       "百花潮剧院": [

      {

        "key": "duration",

        "name": "时长",

        "value": [

          {

            "n": "全部",

            "v": "0"

          },

          {

            "n": "60分钟以上",

            "v": "4"

          },

          {

            "n": "30~60分钟",

            "v": "3"

          },

          {

            "n": "10~30分钟",

            "v": "2"

          },

          {

            "n": "10分钟以下",

            "v": "1"

          }

        ]

      }

    ],

       "潮剧院": [

      {

        "key": "duration",

        "name": "时长",

        "value": [

          {

            "n": "全部",

            "v": "0"

          },

          {

            "n": "60分钟以上",

            "v": "4"

          },

          {

            "n": "30~60分钟",

            "v": "3"

          },

          {

            "n": "10~30分钟",

            "v": "2"

          },

          {

            "n": "10分钟以下",

            "v": "1"

          }

        ]

      }

    ],

       "潮剧团": [

      {

        "key": "duration",

        "name": "时长",

        "value": [

          {

            "n": "全部",

            "v": "0"

          },

          {

            "n": "60分钟以上",

            "v": "4"

          },

          {

            "n": "30~60分钟",

            "v": "3"

          },

          {

            "n": "10~30分钟",

            "v": "2"

          },

          {

            "n": "10分钟以下",

            "v": "1"

          }

        ]

      }

    ],

   

       "闽南歌曲合集": [

      {

        "key": "duration",

        "name": "时长",

        "value": [

          {

            "n": "全部",

            "v": "0"

          },

          {

            "n": "60分钟以上",

            "v": "4"

          },

          {

            "n": "30~60分钟",

            "v": "3"

          },

          {

            "n": "10~30分钟",

            "v": "2"

          },

          {

            "n": "10分钟以下",

            "v": "1"

          }

        ]

      }

    ],

      "中文dj": [

      {

        "key": "duration",

        "name": "时长",

        "value": [

          {

            "n": "全部",

            "v": "0"

          },

          {

            "n": "60分钟以上",

            "v": "4"

          },

          {

            "n": "30~60分钟",

            "v": "3"

          },

          {

            "n": "10~30分钟",

            "v": "2"

          },

          {

            "n": "10分钟以下",

            "v": "1"

          }

        ]

      }

    ],

      

       

         "经典老歌": [

      {

        "key": "duration",

        "name": "时长",

        "value": [

          {

            "n": "全部",

            "v": "0"

          },

          {

            "n": "60分钟以上",

            "v": "4"

          },

          {

            "n": "30~60分钟",

            "v": "3"

          },

          {

            "n": "10~30分钟",

            "v": "2"

          },

          {

            "n": "10分钟以下",

            "v": "1"

          }

        ]

      }

    ],

      "情歌对唱": [

      {

        "key": "duration",

        "name": "时长",

        "value": [

          {

            "n": "全部",

            "v": "0"

          },

          {

            "n": "60分钟以上",

            "v": "4"

          },

          {

            "n": "30~60分钟",

            "v": "3"

          },

          {

            "n": "10~30分钟",

            "v": "2"

          },

          {

            "n": "10分钟以下",

            "v": "1"

          }

        ]

      }

    ],

       "中文mv": [

      {

        "key": "duration",

        "name": "时长",

        "value": [

          {

            "n": "全部",

            "v": "0"

          },

          {

            "n": "60分钟以上",

            "v": "4"

          },

          {

            "n": "30~60分钟",

            "v": "3"

          },

          {

            "n": "10~30分钟",

            "v": "2"

          },

          {

            "n": "10分钟以下",

            "v": "1"

          }

        ]

      }

    ],











    "TVBox": [

      {

        "key": "duration",

        "name": "时长",

        "value": [

          {

            "n": "全部",

            "v": "0"

          },

          {

            "n": "60分钟以上",

            "v": "4"

          },

          {

            "n": "30~60分钟",

            "v": "3"

          },

          {

            "n": "10~30分钟",

            "v": "2"

          },

          {

            "n": "10分钟以下",

            "v": "1"

          }

        ]

      }

    ],

    "球星": [

      {

        "key": "tid",

        "name": "分类",

        "value": [

          {

            "n": "全部",

            "v": "球星"

          },

          {

            "n": "梅西",

            "v": "梅西"

          },

          {

            "n": "C罗",

            "v": "C罗"

          },

          {

            "n": "天下足球",

            "v": "天下足球"

          },

          {

            "n": "罗纳尔多",

            "v": "罗纳尔多"

          },

          {

            "n": "亨利",

            "v": "亨利"

          },

          {

            "n": "小罗",

            "v": "小罗"

          },

          {

            "n": "齐达内",

            "v": "齐达内"

          },

          {

            "n": "贝克汉姆",

            "v": "贝克汉姆"

          },

          {

            "n": "内马尔",

            "v": "内马尔"

          },

          {

            "n": "德布劳内",

            "v": "德布劳内"

          },

          {

            "n": "欧冠",

            "v": "欧冠"

          },

          {

            "n": "世界杯",

            "v": "世界杯"

          },

          {

            "n": "西甲",

            "v": "西甲"

          },

          {

            "n": "英超",

            "v": "英超"

          },

          {

            "n": "意甲",

            "v": "意甲"

          },

          {

            "n": "德甲",

            "v": "德甲"

          },

          {

            "n": "国米",

            "v": "国米"

          },

          {

            "n": "皇马",

            "v": "皇马"

          },

          {

            "n": "巴萨",

            "v": "巴萨"

          },

          {

            "n": "巴黎圣日耳曼",

            "v": "巴黎圣日耳曼"

          },

          {

            "n": "曼联",

            "v": "曼联"

          },

          {

            "n": "曼城",

            "v": "曼城"

          },

          {

            "n": "NBA",

            "v": "NBA"

          },

          {

            "n": "詹姆斯",

            "v": "詹姆斯"

          },

          {

            "n": "库里",

            "v": "库里"

          },

          {

            "n": "杜兰特",

            "v": "杜兰特"

          },

          {

            "n": "UFC",

            "v": "UFC"

          },

          {

            "n": "斯诺克",

            "v": "斯诺克"

          },

          {

            "n": "网球",

            "v": "网球"

          },

          {

            "n": "F1",

            "v": "F1"

          },

          {

            "n": "高尔夫",

            "v": "高尔夫"

          }

        ]

      },

      {

        "key": "duration",

        "name": "时长",

        "value": [

          {

            "n": "全部",

            "v": "0"

          },

          {

            "n": "60分钟以上",

            "v": "4"

          },

          {

            "n": "30~60分钟",

            "v": "3"

          },

          {

            "n": "10~30分钟",

            "v": "2"

          },

          {

            "n": "10分钟以下",

            "v": "1"

          }

        ]

      }

    ],

    "相声小品": [

      {

        "key": "tid",

        "name": "分类",

        "value": [

          {

            "n": "全部",

            "v": "相声小品"

          },

          {

            "n": "单口相声",

            "v": "单口相声"

          },

          {

            "n": "群口相声",

            "v": "群口相声"

          },

          {

            "n": "德云社",

            "v": "德云社"

          },

          {

            "n": "青曲社",

            "v": "青曲社"

          },

          {

            "n": "郭德纲",

            "v": "郭德纲"

          },

          {

            "n": "岳云鹏",

            "v": "岳云鹏"

          },

          {

            "n": "曹云金",

            "v": "曹云金"

          },

          {

            "n": "评书",

            "v": "评书"

          },

          {

            "n": "小曲",

            "v": "小曲"

          },

          {

            "n": "二人转",

            "v": "二人转"

          },

          {

            "n": "春晚小品",

            "v": "春晚小品"

          },

          {

            "n": "赵本山",

            "v": "赵本山"

          },

          {

            "n": "陈佩斯",

            "v": "陈佩斯"

          },

          {

            "n": "冯巩",

            "v": "冯巩"

          },

          {

            "n": "宋小宝",

            "v": "宋小宝"

          },

          {

            "n": "赵丽蓉",

            "v": "赵丽蓉"

          },

          {

            "n": "郭达",

            "v": "郭达"

          },

          {

            "n": "潘长江",

            "v": "潘长江"

          },

          {

            "n": "郭冬临",

            "v": "郭冬临"

          },

          {

            "n": "严顺开",

            "v": "严顺开"

          },

          {

            "n": "文松",

            "v": "文松"

          },

          {

            "n": "开心麻花",

            "v": "开心麻花"

          },

          {

            "n": "屌丝男士",

            "v": "屌丝男士"

          },

          {

            "n": "喜剧综艺",

            "v": "喜剧综艺"

          }

        ]

      },

      {

        "key": "duration",

        "name": "时长",

        "value": [

          {

            "n": "全部",

            "v": "0"

          },

          {

            "n": "60分钟以上",

            "v": "4"

          },

          {

            "n": "30~60分钟",

            "v": "3"

          },

          {

            "n": "10~30分钟",

            "v": "2"

          },

          {

            "n": "10分钟以下",

            "v": "1"

          }

        ]

      }

    ],

    "儿童": [

      {

        "key": "tid",

        "name": "分类",

        "value": [

          {

            "n": "全部",

            "v": "儿童"

          },

          {

            "n": "教育",

            "v": "儿童教育"

          },

          {

            "n": "歌曲",

            "v": "儿童歌曲"

          },

          {

            "n": "舞蹈",

            "v": "儿童舞蹈"

          },

          {

            "n": "成语故事",

            "v": "儿童成语故事"

          },

          {

            "n": "音乐",

            "v": "儿童音乐"

          },

          {

            "n": "儿童MV",

            "v": "儿童MV"

          },

          {

            "n": "贝乐虎",

            "v": "贝乐虎"

          },

          {

            "n": "宝宝巴士",

            "v": "宝宝巴士"

          },

          {

            "n": "儿童好声音",

            "v": "儿童好声音"

          }

        ]

      },

      {

        "key": "duration",

        "name": "时长",

        "value": [

          {

            "n": "全部",

            "v": "0"

          },

          {

            "n": "60分钟以上",

            "v": "4"

          },

          {

            "n": "30~60分钟",

            "v": "3"

          },

          {

            "n": "10~30分钟",

            "v": "2"

          },

          {

            "n": "10分钟以下",

            "v": "1"

          }

        ]

      }

    ],

    "戏曲": [

      {

        "key": "tid",

        "name": "分类",

        "value": [

          {

            "n": "全部",

            "v": "戏曲"

          },

          {

            "n": "京剧",

            "v": "京剧"

          },

          {

            "n": "越剧",

            "v": "越剧"

          },

          {

            "n": "黄梅戏",

            "v": "黄梅戏"

          },

          {

            "n": "评剧",

            "v": "评剧"

          },

          {

            "n": "豫剧",

            "v": "豫剧"

          },

          {

            "n": "昆曲",

            "v": "昆曲"

          },

          {

            "n": "高腔",

            "v": "高腔"

          },

          {

            "n": "梆子腔",

            "v": "梆子腔"

          },

          {

            "n": "河北梆子",

            "v": "河北梆子"

          },

          {

            "n": "晋剧",

            "v": "晋剧"

          },

          {

            "n": "蒲剧",

            "v": "蒲剧"

          },

          {

            "n": "雁剧",

            "v": "雁剧"

          },

          {

            "n": "上党梆子",

            "v": "上党梆子"

          },

          {

            "n": "秦腔",

            "v": "秦腔"

          },

          {

            "n": "武安平调",

            "v": "武安平调"

          },

          {

            "n": "二人台",

            "v": "二人台"

          },

          {

            "n": "吉剧",

            "v": "吉剧"

          },

          {

            "n": "龙江剧",

            "v": "龙江剧"

          },

          {

            "n": "越调",

            "v": "越调"

          },

          {

            "n": "河南曲剧",

            "v": "河南曲剧"

          },

          {

            "n": "山东梆子",

            "v": "山东梆子"

          },

          {

            "n": "淮剧",

            "v": "淮剧"

          },

          {

            "n": "沪剧",

            "v": "沪剧"

          },

          {

            "n": "滑稽戏",

            "v": "滑稽戏"

          },

          {

            "n": "婺剧",

            "v": "婺剧"

          },

          {

            "n": "绍剧",

            "v": "绍剧"

          },

          {

            "n": "徽剧",

            "v": "徽剧"

          },

          {

            "n": "闽剧",

            "v": "闽剧"

          },

          {

            "n": "莆仙戏",

            "v": "莆仙戏"

          },

          {

            "n": "梨园戏",

            "v": "梨园戏"

          },

          {

            "n": "高甲戏",

            "v": "高甲戏"

          },

          {

            "n": "赣剧",

            "v": "赣剧"

          },

          {

            "n": "采茶戏",

            "v": "采茶戏"

          },

          {

            "n": "汉剧",

            "v": "汉剧"

          },

          {

            "n": "湘剧",

            "v": "湘剧"

          },

          {

            "n": "祁剧",

            "v": "祁剧"

          },

          {

            "n": "湖南花鼓戏",

            "v": "湖南花鼓戏"

          },

          {

            "n": "粤剧",

            "v": "粤剧"

          },

          {

            "n": "潮剧",

            "v": "潮剧"

          },

          {

            "n": "桂剧",

            "v": "桂剧"

          },

          {

            "n": "彩调",

            "v": "彩调"

          },

          {

            "n": "壮剧",

            "v": "壮剧"

          },

          {

            "n": "川剧",

            "v": "川剧"

          },

          {

            "n": "黔剧",

            "v": "黔剧"

          },

          {

            "n": "滇剧",

            "v": "滇剧"

          },

          {

            "n": "傣剧",

            "v": "傣剧"

          },

          {

            "n": "藏剧",

            "v": "藏剧"

          },

          {

            "n": "皮影戏",

            "v": "皮影戏"

          }

        ]

      },

      {

        "key": "duration",

        "name": "时长",

        "value": [

          {

            "n": "全部",

            "v": "0"

          },

          {

            "n": "60分钟以上",

            "v": "4"

          },

          {

            "n": "30~60分钟",

            "v": "3"

          },

          {

            "n": "10~30分钟",

            "v": "2"

          },

          {

            "n": "10分钟以下",

            "v": "1"

          }

        ]

      }

    ]  

  }

}